{
    "data": [
        {
            "id": 214,
            "name": "brand.all",
            "title": "View All Brands in System",
            "description": null,
            "type": "multi",
            "module": "brand",
            "group_type": null,
            "guard_name": "api",
            "created_at": "2025-12-09T17:21:24.000000Z",
            "updated_at": "2025-12-09T17:21:24.000000Z"
        },
        {
            "id": 211,
            "name": "brand.create",
            "title": "Brand Create",
            "description": null,
            "type": "multi",
            "module": "brand",
            "group_type": null,
            "guard_name": "api",
            "created_at": "2025-12-09T17:20:57.000000Z",
            "updated_at": "2025-12-09T17:20:57.000000Z"
        },
        {
            "id": 213,
            "name": "brand.delete",
            "title": "Brand Delete",
            "description": null,
            "type": "multi",
            "module": "brand",
            "group_type": null,
            "guard_name": "api",
            "created_at": "2025-12-09T17:21:13.000000Z",
            "updated_at": "2025-12-09T17:21:13.000000Z"
        },
        {
            "id": 212,
            "name": "brand.edit",
            "title": "Brand Edit",
            "description": null,
            "type": "multi",
            "module": "brand",
            "group_type": null,
            "guard_name": "api",
            "created_at": "2025-12-09T17:21:05.000000Z",
            "updated_at": "2025-12-09T17:21:05.000000Z"
        },
        {
            "id": 209,
            "name": "brand.index",
            "title": "Brands Page",
            "description": null,
            "type": "multi",
            "module": "brand",
            "group_type": null,
            "guard_name": "api",
            "created_at": "2025-12-09T17:20:40.000000Z",
            "updated_at": "2025-12-09T17:20:40.000000Z"
        },
        {
            "id": 210,
            "name": "brand.show",
            "title": "Brand Detail",
            "description": null,
            "type": "multi",
            "module": "brand",
            "group_type": null,
            "guard_name": "api",
            "created_at": "2025-12-09T17:20:50.000000Z",
            "updated_at": "2025-12-09T17:20:50.000000Z"
        },
        {
            "id": 235,
            "name": "chat.create",
            "title": "chat.create",
            "description": null,
            "type": "multi",
            "module": "chat",
            "group_type": null,
            "guard_name": "api",
            "created_at": "2025-12-17T22:04:01.000000Z",
            "updated_at": "2025-12-17T22:04:01.000000Z"
        },
        {
            "id": 237,
            "name": "chat.delete",
            "title": "chat.delete",
            "description": null,
            "type": "multi",
            "module": "chat",
            "group_type": null,
            "guard_name": "api",
            "created_at": "2025-12-17T22:04:26.000000Z",
            "updated_at": "2025-12-17T22:04:26.000000Z"
        },
        {
            "id": 236,
            "name": "chat.edit",
            "title": "chat.edit",
            "description": null,
            "type": "multi",
            "module": "chat",
            "group_type": null,
            "guard_name": "api",
            "created_at": "2025-12-17T22:04:13.000000Z",
            "updated_at": "2025-12-17T22:04:13.000000Z"
        },
        {
            "id": 233,
            "name": "chat.index",
            "title": "chat.index",
            "description": null,
            "type": "multi",
            "module": "chat",
            "group_type": null,
            "guard_name": "api",
            "created_at": "2025-12-17T22:03:14.000000Z",
            "updated_at": "2025-12-17T22:03:14.000000Z"
        }
    ],
    "meta": {
        "current_page": 1,
        "last_page": 12,
        "per_page": 10,
        "total": 118
    },
    "totals": []
}